[
  {
    "model": "oauth2_provider.application",
    "pk": 1,
    "fields": {
      "client_id": "4XnsRQTGMUp1TO3WCniWsl1THzLNmjcfqU5Keh5C",
      "user": 1,
      "redirect_uris": "",
      "client_type": "public",
      "authorization_grant_type": "password",
      "client_secret": "ugpViM0R29NiKi70ZMB9PI126gFygDkHau7Ztf11L9yuQ9c8uWIzXExhoMetgJpV1YAS9szAsjs6KmCM4IIl8Y5zFhmUDBfj07o7nUCQp2MmM66GBvn3lvSCY3z2WfPn",
      "name": "web_auth",
      "skip_authorization": false
    }
  }
]